…
```
## `summarise()` has grouped output by 'pit'. You can override using the `.groups`
## argument.
```

```r
ungroup(dataPitLayer)
```

```
## # A tibble: 40 × 10
##    pit   depth texture coarse_element   rd1   rd2   rd3   rd4  root micas
##    <fct> <dbl> <fct>            <dbl> <dbl> <dbl> <dbl> <dbl> <dbl> <fct>
##  1 F1       10 SL                0.05  40.7   1.3   0.8   0.5  43.3 0    
##  2 F1       20 SA                0.05  29.7   2.1   0.9   0.9  33.6 0    
##  3 F1       30 SA                0.14  24.9   1.2   0.3   0.1  26.5 0    
##  4 F1       40 SA                0.14  12.3   0.6   0     0    12.9 0    
##  5 F1       50 SA                0.05   9.3   0.2   0     0     9.5 2    
##  6 F1       60 SA                0.05   5.7   0     0     0     5.7 2    
##  7 F1       70 LSA               0.05   2.5   0     0     0     2.5 3    
##  8 F1       80 LSA               0.05   1.5   0     0     0     1.5 3    
##  9 F1       90 LSA               0.05   1.3   0     0     0     1.3 3    
## 10 F1      100 LSA               0.05   1     0     0     0     1   3    
## # ℹ 30 more rows
```
…
